radottambunan.robby
team.rizal.vokal  085747118000
puspita.wardhani.adjie
detotv
tirandomusicedu  085604457595
garasi_schoolofmusic 081 8840 168
grooveart_music
voice.ofindonesia wa.me/6281212999703
faryvocalonline1 087878030876
riosilaen wa.me/6281212999703 
tedy_eka
methachandra_official
faryfiryana1401
sarahlala22 08112282908
grace.ghea  088971064288
kristopizarro
indizmusic_official +62895370124749 / +62 222507733
sing_myvoice
themos.entertainment
dinesti.official 
Whatsapp/call 081350004290
maritavokal
putrimartiano




































 











